# Blender MTL File: 'surgical+tools.blend'
# Material Count: 1

newmtl metal.006
Ns 27.450980
Ka 0.000000 0.000000 0.000000
Kd 0.800000 0.799920 0.799920
Ks 1.000000 1.000000 1.000000
Ni 1.000000
d 1.000000
illum 2
